Division,WeightClassKg,Place,Name,Team,BodyweightKg,Best3SquatKg,Best3BenchKg,Best3DeadliftKg,TotalKg,Equipment,Event,Sex,BirthDate
Girls,44.23,1,McKenzie Rodriguez,Venus,43,97.52,52.16,97.52,247.21,Unlimited,SBD,F,
Girls,44.23,2,Marely Villegas,Hillsboro,44.18,70.31,40.82,74.84,185.97,Unlimited,SBD,F,
Girls,44.23,3,Alyssa Ruiz,McGregor,42.91,74.84,29.48,65.77,170.1,Unlimited,SBD,F,
Girls,44.23,4,Natalye Oleaurre,Waco Connally,38.46,43.09,29.48,72.57,145.15,Unlimited,SBD,F,
Girls,44.23,DQ,Aaliyah Miramontes,Venus,40.28,,,,,Unlimited,SBD,F,
Girls,47.85,1,Haleigh Lanmon,McGregor,46.36,90.72,47.63,86.18,224.53,Unlimited,SBD,F,
Girls,47.85,2,Marbel Quintana,Venus,47.81,86.18,45.36,90.72,222.26,Unlimited,SBD,F,
Girls,47.85,3,Yozelin Sarabia,Waco La Vega,46.54,70.31,38.56,97.52,206.38,Unlimited,SBD,F,
Girls,47.85,4,Hailey Roman,Waco Connally,47.81,81.65,38.56,86.18,206.38,Unlimited,SBD,F,
Girls,47.85,5,Alaina Versluis,Hillsboro,47.81,61.23,43.09,83.91,188.24,Unlimited,SBD,F,
Girls,47.85,6,Kylie Earl,Robinson,47.81,61.23,27.22,74.84,163.29,Unlimited,SBD,F,
Girls,51.94,1,Mia Gonzales,China Spring,51.71,120.2,63.5,124.74,308.44,Unlimited,SBD,F,
Girls,51.94,2,Antoinette Adjei,Venus,50.98,117.93,61.23,120.2,299.37,Unlimited,SBD,F,
Girls,51.94,3,Kasey Fitzer,Gatesville,49.8,104.33,74.84,115.67,294.84,Unlimited,SBD,F,
Girls,51.94,4,Baylyn Roberts,Gatesville,48.17,81.65,56.7,104.33,242.67,Unlimited,SBD,F,
Girls,51.94,5,Devida Anderson,McGregor,49.71,81.65,38.56,88.45,208.65,Unlimited,SBD,F,
Girls,51.94,6,Brinley Dorris,Waco La Vega,50.71,79.38,47.63,74.84,201.85,Unlimited,SBD,F,
Girls,51.94,7,Elise Hykel,McGregor,48.99,79.38,31.75,79.38,190.51,Unlimited,SBD,F,
Girls,51.94,8,Hailey Bourque,Copperas Cove,50.71,77.11,36.29,74.84,188.24,Unlimited,SBD,F,
Girls,51.94,9,Cinthia Matus,Moody,51.62,70.31,40.82,72.57,183.7,Unlimited,SBD,F,
Girls,51.94,DQ,Kayla Rudd,Copperas Cove,50.89,,,,,Unlimited,SBD,F,
Girls,51.94,DQ,Emmely Sarabia,Waco La Vega,50.89,,,,,Unlimited,SBD,F,
Girls,56.02,1,Bella Yerger,China Spring,55.61,113.4,61.23,117.93,292.57,Unlimited,SBD,F,
Girls,56.02,2,Yoaneth Quintana,Venus,55.97,113.4,56.7,115.67,285.76,Unlimited,SBD,F,
Girls,56.02,3,Kensley Eary,Gatesville,53.71,106.59,58.97,108.86,274.42,Unlimited,SBD,F,
Girls,56.02,4,Marin Segraves,Gatesville,53.61,97.52,68.04,106.59,272.16,Unlimited,SBD,F,
Girls,56.02,5,Jade Nelson,Hillsboro,53.89,106.59,54.43,104.33,265.35,Unlimited,SBD,F,
Girls,56.02,6,Avery Roberts,China Spring,52.07,90.72,61.23,102.06,254.01,Unlimited,SBD,F,
Girls,56.02,7,Payton Lalonde-Lee,McGregor,55.7,88.45,56.7,108.86,254.01,Unlimited,SBD,F,
Girls,56.02,8,Camille De Los Santos,Copperas Cove,55.61,97.52,47.63,106.59,251.74,Unlimited,SBD,F,
Girls,56.02,9,Brittany Willis,Waco Connally,53.34,95.25,47.63,106.59,249.48,Unlimited,SBD,F,
Girls,56.02,10,Olivia Bolden,China Spring,55.88,81.65,61.23,106.59,249.48,Unlimited,SBD,F,
Girls,56.02,11,Yadira Cruz,Hillsboro,54.07,90.72,47.63,83.91,222.26,Unlimited,SBD,F,
Girls,56.02,12,Brynlee Jewell,Lorena,53.98,86.18,43.09,83.91,213.19,Unlimited,SBD,F,
Girls,56.02,13,Aaliyah Medlock,Waco Connally,53.25,70.31,45.36,90.72,206.38,Unlimited,SBD,F,
Girls,56.02,14,Samantha Klem,Copperas Cove,52.53,68.04,40.82,90.72,199.58,Unlimited,SBD,F,
Girls,56.02,15,Maggie King,McGregor,53.25,81.65,34.02,79.38,195.04,Unlimited,SBD,F,
Girls,56.02,16,Elizabeth Orta,Copperas Cove,55.61,65.77,27.22,86.18,179.17,Unlimited,SBD,F,
Girls,56.02,17,Kathryn Rivera,Robinson,52.89,63.5,34.02,77.11,174.63,Unlimited,SBD,F,
Girls,56.02,18,Anela Johnson,Robinson,52.8,61.23,31.75,77.11,170.1,Unlimited,SBD,F,
Girls,60.1,1,Bela Mondragon,Gatesville,58.88,120.2,74.84,117.93,312.98,Unlimited,SBD,F,
Girls,60.1,2,Alisia Librado,Hillsboro,59.33,120.2,61.23,117.93,299.37,Unlimited,SBD,F,
Girls,60.1,3,Evelyn Casteneda,Hillsboro,58.33,113.4,61.23,113.4,288.03,Unlimited,SBD,F,
Girls,60.1,4,Sheyla Ramirez,Hillsboro,56.88,111.13,56.7,113.4,281.23,Unlimited,SBD,F,
Girls,60.1,5,Liberty Braswell,Lorena,59.87,92.99,54.43,99.79,247.21,Unlimited,SBD,F,
Girls,60.1,6,Gabriella Turnbo,Moody,57.52,70.31,47.63,83.91,201.85,Unlimited,SBD,F,
Girls,60.1,7,Finley Schill,Robinson,59.69,72.57,43.09,81.65,197.31,Unlimited,SBD,F,
Girls,60.1,8,Emilie Morris,Killeen Harker Heights,58.15,70.31,38.56,79.38,188.24,Unlimited,SBD,F,
Girls,60.1,9,Anahi Garcia,Moody,56.97,61.23,43.09,61.23,165.56,Unlimited,SBD,F,
Girls,60.1,DQ,Claire Penny,China Spring,58.69,95.25,,,,Unlimited,SBD,F,
Girls,67.36,1,Shaylie Teague,Gatesville,64.5,147.42,104.33,142.88,394.63,Unlimited,SBD,F,
Girls,67.36,2,Callie Cox,China Spring,65.5,102.06,74.84,120.2,297.1,Unlimited,SBD,F,
Girls,67.36,3,Jurith Ortiz,Hillsboro,65.77,108.86,61.23,120.2,290.3,Unlimited,SBD,F,
Girls,67.36,4,Reigen Davidson,Gatesville,65.86,108.86,54.43,111.13,274.42,Unlimited,SBD,F,
Girls,67.36,5,Alexis Harn,McGregor,61.42,97.52,54.43,97.52,249.48,Unlimited,SBD,F,
Girls,67.36,6,Kennedie Fall,Copperas Cove,66.77,92.99,40.82,115.67,249.48,Unlimited,SBD,F,
Girls,67.36,7,Natalzbel Rodriguez,Copperas Cove,65.59,95.25,36.29,113.4,244.94,Unlimited,SBD,F,
Girls,67.36,8,Mayra Ibarra,Waco La Vega,66.59,99.79,38.56,99.79,238.14,Unlimited,SBD,F,
Girls,67.36,9,Lazaiah Marmolejo,Waco La Vega,65.41,95.25,43.09,90.72,229.06,Unlimited,SBD,F,
Girls,67.36,10,Kristen Strelsky,Lorena,62.69,92.99,45.36,81.65,219.99,Unlimited,SBD,F,
Girls,67.36,11,Dalisa Sanchez,Copperas Cove,64.77,90.72,40.82,88.45,219.99,Unlimited,SBD,F,
Girls,67.36,12,Stephanie Cervantez,Venus,63.14,90.72,38.56,83.91,213.19,Unlimited,SBD,F,
Girls,67.36,13,O'ttavia Denton,Killeen Harker Heights,65.5,74.84,29.48,106.59,210.92,Unlimited,SBD,F,
Girls,67.36,14,Khylie Henderson,McGregor,65.77,83.91,40.82,83.91,208.65,Unlimited,SBD,F,
Girls,67.36,15,Alyssa Valadez,Lorena,65.05,79.38,36.29,90.72,206.38,Unlimited,SBD,F,
Girls,67.36,16,Calleigh Roy,Robinson,61.23,61.23,38.56,74.84,174.63,Unlimited,SBD,F,
Girls,67.36,17,Madison Bieberich,Copperas Cove,65.5,49.9,29.48,74.84,154.22,Unlimited,SBD,F,
Girls,75.07,1,Victoria Brown,Venus,73.12,133.81,104.33,120.2,358.34,Unlimited,SBD,F,
Girls,75.07,2,Timia Bowers,McGregor,74.75,129.27,63.5,117.93,310.71,Unlimited,SBD,F,
Girls,75.07,3,Abigail Vasser,Lorena,71.49,129.27,61.23,115.67,306.17,Unlimited,SBD,F,
Girls,75.07,4,Aaliyah Totten,China Spring,73.84,113.4,70.31,122.47,306.17,Unlimited,SBD,F,
Girls,75.07,5,Erin Sewell,Copperas Cove,74.48,102.06,49.9,138.35,290.3,Unlimited,SBD,F,
Girls,75.07,6,Amaya Eseroma,Copperas Cove,73.21,117.93,49.9,111.13,278.96,Unlimited,SBD,F,
Girls,75.07,7,Zoe Garcia,Moody,73.03,106.59,54.43,115.67,276.69,Unlimited,SBD,F,
Girls,75.07,8,Danika Nelson,Copperas Cove,73.66,111.13,45.36,113.4,269.89,Unlimited,SBD,F,
Girls,75.07,9,Amy Keeland,Lorena,73.12,113.4,47.63,106.59,267.62,Unlimited,SBD,F,
Girls,75.07,10,Megan Obstoj,Moody,69.67,74.84,47.63,83.91,206.38,Unlimited,SBD,F,
Girls,75.07,DQ,Silvana Perez,Venus,72.85,,,,,Unlimited,SBD,F,
Girls,75.07,DQ,Jocelyn Barrera,Waco Connally,73.84,74.84,,,,Unlimited,SBD,F,
Girls,82.33,1,Emma Turner,Robinson,81.83,170.1,104.33,158.76,433.18,Unlimited,SBD,F,
Girls,82.33,2,Misha Brownlee,Killeen Harker Heights,75.21,104.33,65.77,136.08,306.17,Unlimited,SBD,F,
Girls,82.33,3,Belle Rivera,China Spring,76.84,99.79,81.65,120.2,301.64,Unlimited,SBD,F,
Girls,82.33,4,Keyana Webb,Gatesville,82.01,108.86,74.84,117.93,301.64,Unlimited,SBD,F,
Girls,82.33,5,Honor Searcy,Gatesville,78.74,111.13,81.65,104.33,297.1,Unlimited,SBD,F,
Girls,82.33,6,Daisy Jaimes,McGregor,81.19,113.4,61.23,120.2,294.84,Unlimited,SBD,F,
Girls,82.33,7,Adrienne Harris,Venus,79.02,108.86,61.23,104.33,274.42,Unlimited,SBD,F,
Girls,82.33,8,Aaliyah Harris,Killeen Harker Heights,78.65,90.72,61.23,95.25,247.21,Unlimited,SBD,F,
Girls,82.33,9,Daniela Calzada-Bernal,Waco Connally,79.2,88.45,49.9,90.72,229.06,Unlimited,SBD,F,
Girls,90.04,1,Karissa Treat,Robinson,88.54,158.76,90.72,156.49,405.97,Unlimited,SBD,F,
Girls,90.04,2,Flor Benitez,McGregor,85.55,142.88,77.11,133.81,353.8,Unlimited,SBD,F,
Girls,90.04,3,Izzy King,Robinson,89.27,108.86,56.7,104.33,269.89,Unlimited,SBD,F,
Girls,90.04,4,Emma Godfrey,Killeen Harker Heights,89.99,83.91,49.9,102.06,235.87,Unlimited,SBD,F,
Girls,90.04,5,Christine Brown,Waco Connally,84.19,90.72,49.9,90.72,231.33,Unlimited,SBD,F,
Girls,100.02,1,Emma Davidson,Gatesville,97.34,136.08,115.67,115.67,367.41,Unlimited,SBD,F,
Girls,100.02,2,Alyssa Sanchez,McGregor,94.98,124.74,81.65,129.27,335.66,Unlimited,SBD,F,
Girls,100.02,3,Jami Rodriguez,Hillsboro,95.44,142.88,83.91,106.59,333.39,Unlimited,SBD,F,
Girls,100.02,4,Victoria Rivera,Venus,97.7,129.27,70.31,115.67,315.25,Unlimited,SBD,F,
Girls,100.02,5,Kyli Higginbotham,Lorena,93.8,131.54,61.23,113.4,306.17,Unlimited,SBD,F,
Girls,100.02,6,Samantha Howell,Venus,93.44,120.2,61.23,120.2,301.64,Unlimited,SBD,F,
Girls,100.02,7,Analicia Silva,Gatesville,97.79,97.52,58.97,104.33,260.82,Unlimited,SBD,F,
Girls,100.02,8,Madison Hajek,Waco Connally,92.44,86.18,56.7,108.86,251.74,Unlimited,SBD,F,
Girls,110,1,Isabella Perez,Moody,106.59,154.22,83.91,136.08,374.21,Unlimited,SBD,F,
Girls,110,2,Natalia Gallegos,Hillsboro,103.51,142.88,88.45,124.74,356.07,Unlimited,SBD,F,
Girls,110,3,Ariya Green,Waco La Vega,105.6,142.88,86.18,117.93,347,Unlimited,SBD,F,
Girls,110,4,Alaina Martinez,Waco Connally,106.96,136.08,74.84,108.86,319.78,Unlimited,SBD,F,
Girls,110,5,Julia Petty,Gatesville,108.86,120.2,77.11,122.47,319.78,Unlimited,SBD,F,
Girls,110,6,Layla Bedoy,Robinson,101.06,108.86,61.23,106.59,276.69,Unlimited,SBD,F,
Girls,110,7,Mya Perez,Waco Connally,102.24,106.59,49.9,113.4,269.89,Unlimited,SBD,F,
Girls,110+,1,Amariya Watson,Waco La Vega,111.31,170.1,106.59,145.15,421.84,Unlimited,SBD,F,
Girls,110+,2,Hailey Obstoj,Moody,112.22,165.56,88.45,147.42,401.43,Unlimited,SBD,F,
Girls,110+,3,Hailey Wells,China Spring,154.49,145.15,102.06,145.15,392.36,Unlimited,SBD,F,
Girls,110+,4,Perla Escalante,Waco La Vega,161.3,158.76,83.91,113.4,356.07,Unlimited,SBD,F,
Girls,110+,5,Janiah Smith,Waco Connally,111.31,106.59,56.7,115.67,278.96,Unlimited,SBD,F,
Girls,110+,6,Braelyn Woodard,Killeen Harker Heights,117.12,70.31,49.9,111.13,231.33,Unlimited,SBD,F,
Girls,110+,7,Katelyn Flores,Killeen Harker Heights,132.99,70.31,31.75,77.11,179.17,Unlimited,SBD,F,
