Division,WeightClassKg,Place,Name,Team,BodyweightKg,Best3SquatKg,Best3BenchKg,Best3DeadliftKg,TotalKg,Equipment,Event,Sex,BirthDate
Boys,51.71,1,Ethan Packard,San Angelo Lake View,51.62,156.49,92.99,138.35,387.82,Unlimited,SBD,M,
Boys,51.71,2,Gerardo Rios,Big Lake Reagan County,50.26,104.33,54.43,111.13,269.89,Unlimited,SBD,M,
Boys,51.71,3,Sheldon Book,Miles,49.9,88.45,65.77,102.06,256.28,Unlimited,SBD,M,
Boys,55.79,1,Tevin Meade,Miles,55.52,183.7,106.59,167.83,458.13,Unlimited,SBD,M,
Boys,55.79,2,Vicente Chavez,Ballinger,51.89,113.4,63.5,127.01,303.91,Unlimited,SBD,M,
Boys,55.79,3,Cesar Villarruel,Miles,54.07,95.25,45.36,102.06,242.67,Unlimited,SBD,M,
Boys,55.79,DQ,Dominic Salinas,Brady,51.89,83.91,,,,Unlimited,SBD,M,
Boys,59.87,1,Ethan Crouch,Miles,58.24,142.88,95.25,142.88,381.02,Unlimited,SBD,M,
Boys,59.87,2,Tayton Springer,Ballinger,57.79,102.06,72.57,127.01,301.64,Unlimited,SBD,M,
Boys,59.87,DQ,Aj Ramos,Brady,59.33,142.88,90.72,,,Unlimited,SBD,M,
Boys,67.13,1,Braeden Packard,San Angelo Lake View,67.13,204.12,124.74,185.97,514.83,Unlimited,SBD,M,
Boys,67.13,2,Ruben Bernal,Big Lake Reagan County,66.59,204.12,99.79,174.63,478.54,Unlimited,SBD,M,
Boys,67.13,3,Austin Medina,Miles,65.41,179.17,111.13,172.37,462.66,Unlimited,SBD,M,
Boys,67.13,4,Lyric Holland,Big Lake Reagan County,62.6,165.56,92.99,156.49,415.04,Unlimited,SBD,M,
Boys,67.13,5,Brandon Snyder,San Angelo Central,63.96,136.08,88.45,174.63,399.16,Unlimited,SBD,M,
Boys,67.13,6,Isaak Tarr,Brady,65.59,131.54,83.91,142.88,358.34,Unlimited,SBD,M,
Boys,67.13,7,Emilio Mystic,San Angelo Central,65.59,113.4,65.77,140.61,319.78,Unlimited,SBD,M,
Boys,67.13,DQ,Dillon Medina,Miles,67.13,,,,,Unlimited,SBD,M,
Boys,74.84,1,Ian Cortez,San Angelo Lake View,74.12,263.08,154.22,240.4,657.71,Unlimited,SBD,M,
Boys,74.84,2,Austin Wood,San Angelo Lake View,71.67,197.31,131.54,197.31,526.17,Unlimited,SBD,M,
Boys,74.84,3,Manny Torres,Miles,70.94,190.51,113.4,192.78,496.68,Unlimited,SBD,M,
Boys,74.84,4,Nicholas Perez,San Angelo Central,68.49,176.9,108.86,208.65,494.42,Unlimited,SBD,M,
Boys,74.84,5,Trent Helms,Ballinger,72.03,170.1,127.01,172.37,469.47,Unlimited,SBD,M,
Boys,74.84,6,Alfredo Hidalgo,Big Lake Reagan County,69.76,170.1,92.99,156.49,419.57,Unlimited,SBD,M,
Boys,74.84,7,Jj Jimenez,Big Lake Reagan County,72.12,163.29,102.06,151.95,417.3,Unlimited,SBD,M,
Boys,74.84,8,Aden Pena,Ballinger,73.03,156.49,83.91,147.42,387.82,Unlimited,SBD,M,
Boys,74.84,9,Alexei Perez,Big Lake Reagan County,67.31,151.95,81.65,142.88,376.48,Unlimited,SBD,M,
Boys,74.84,DQ,Jaron Tyner,San Angelo Central,72.94,124.74,,,,Unlimited,SBD,M,
Boys,74.84,DQ,Lj Ramos,Brady,72.48,,,,,Unlimited,SBD,M,
Boys,82.1,1,John Aguirre,San Angelo Lake View,77.2,161.03,111.13,176.9,449.06,Unlimited,SBD,M,
Boys,82.1,2,Manuel Torres,San Angelo Central,78.74,147.42,95.25,185.97,428.64,Unlimited,SBD,M,
Boys,82.1,3,Austin Larson,Miles,79.47,142.88,97.52,147.42,387.82,Unlimited,SBD,M,
Boys,82.1,4,Angel Navarro,Ballinger,81.19,156.49,88.45,142.88,387.82,Unlimited,SBD,M,
Boys,82.1,5,Ian Rodriguez,San Angelo Central,81.83,131.54,65.77,165.56,362.87,Unlimited,SBD,M,
Boys,82.1,DQ,David Osborn,San Angelo Central,79.74,170.1,,,,Unlimited,SBD,M,
Boys,89.81,1,Roman Rivero,Big Lake Reagan County,87.36,254.01,129.27,206.38,589.67,Unlimited,SBD,M,
Boys,89.81,2,Kade Miller,Miles,87.18,229.06,136.08,197.31,562.45,Unlimited,SBD,M,
Boys,89.81,3,Abel Luna,Ballinger,88,219.99,117.93,183.7,521.63,Unlimited,SBD,M,
Boys,89.81,4,Keeler Pullig,Miles,87.91,195.04,129.27,181.44,505.76,Unlimited,SBD,M,
Boys,89.81,5,Cristian Gutiérrez,Big Lake Reagan County,84.91,201.85,111.13,181.44,494.42,Unlimited,SBD,M,
Boys,89.81,6,Carter Holland,Big Lake Reagan County,83.01,195.04,111.13,181.44,487.61,Unlimited,SBD,M,
Boys,89.81,7,Zech Ledezma,Brady,88.18,179.17,92.99,154.22,426.38,Unlimited,SBD,M,
Boys,89.81,8,Aden Sanchez,Ballinger,89.36,149.69,102.06,158.76,410.5,Unlimited,SBD,M,
Boys,89.81,9,Drew Knickerbocker,Ballinger,85.64,158.76,102.06,147.42,408.23,Unlimited,SBD,M,
Boys,89.81,10,Gabriel Velez,San Angelo Central,84.1,165.56,92.99,,258.55,Unlimited,SB,M,
Boys,99.79,1,Aven Ochoa,Ballinger,97.89,183.7,129.27,197.31,510.29,Unlimited,SBD,M,
Boys,99.79,2,Colton Kelly,Miles,97.07,185.97,108.86,192.78,487.61,Unlimited,SBD,M,
Boys,99.79,3,Anthony Aguirre,San Angelo Central,99.61,174.63,90.72,195.04,460.4,Unlimited,SBD,M,
Boys,99.79,4,Jack Robertson,Ballinger,95.89,163.29,77.11,181.44,421.84,Unlimited,SBD,M,
Boys,99.79,5,Amando Moreno,San Angelo Lake View,90.17,151.95,79.38,154.22,385.55,Unlimited,SBD,M,
Boys,99.79,DQ,Landon Cornutt,Ballinger,95.35,136.08,90.72,,,Unlimited,SBD,M,
Boys,109.77,1,Alejandro Alcantar,San Angelo Lake View,108.59,247.21,161.03,240.4,648.64,Unlimited,SBD,M,
Boys,109.77,2,Isaac Cordova,San Angelo Lake View,104.96,217.72,140.61,204.12,562.45,Unlimited,SBD,M,
Boys,109.77,3,Bryan Gutierrez,Big Lake Reagan County,99.93,226.8,131.54,185.97,544.31,Unlimited,SBD,M,
Boys,109.77,4,Dakota Falcon,Ballinger,107.5,195.04,129.27,185.97,510.29,Unlimited,SBD,M,
Boys,109.77,5,Adrain Solis,Brady,102.97,199.58,113.4,185.97,498.95,Unlimited,SBD,M,
Boys,109.77,6,Roman Torres,San Angelo Central,101.79,151.95,88.45,226.8,467.2,Unlimited,SBD,M,
Boys,109.77,7,Demarcus Reed,Brady,109.13,183.7,102.06,174.63,460.4,Unlimited,SBD,M,
Boys,109.77,8,Bryan Sandoval,San Angelo Central,105.14,142.88,74.84,158.76,376.48,Unlimited,SBD,M,
Boys,124.74,1,Isidro Rodriguez,Big Lake Reagan County,109.86,272.16,147.42,210.92,630.49,Unlimited,SBD,M,
Boys,124.74,2,Xavier Rangel,San Angelo Lake View,110.31,215.46,151.95,192.78,560.19,Unlimited,SBD,M,
Boys,139.71,1,Juan Ortiz,San Angelo Lake View,128.19,276.69,183.7,276.69,737.09,Unlimited,SBD,M,
Boys,139.71,2,John Cepeda,San Angelo Lake View,128.09,231.33,147.42,195.04,573.79,Unlimited,SBD,M,
Boys,139.71+,1,Cj Larson,Miles,151.86,176.9,113.4,151.95,442.25,Unlimited,SBD,M,
Boys,,NS,Angel Lopez,Brady,,,,,,Unlimited,SBD,M,
Boys,,NS,Jordan Pires,Big Lake Reagan County,,,,,,Unlimited,SBD,M,
Boys,,NS,Sean Jacoby,Brady,,,,,,Unlimited,SBD,M,
Boys,,NS,Kamron Dominguez,Miles,,,,,,Unlimited,SBD,M,
Boys,,NS,Nathaniel Pedraza,San Angelo Central,,,,,,Unlimited,SBD,M,
Boys,,NS,Angel Salazar,San Angelo Lake View,,,,,,Unlimited,SBD,M,
