Division,WeightClassKg,Place,Name,Team,BodyweightKg,Best3SquatKg,Best3BenchKg,Best3DeadliftKg,TotalKg,Equipment,Event,Sex
Boys,51.71,1,Exxon Pantaleon,Krum,50.58,111.13,58.97,142.88,312.98,Single-ply,SBD,M
Boys,51.71,2,Mario Giron,Pilot Point,47.17,106.59,61.23,97.52,265.35,Single-ply,SBD,M
Boys,51.71,3,Kolton Ware,Gainesville,51.07,65.77,38.56,90.72,195.04,Single-ply,SBD,M
Boys,51.71,4,Matt Howard #2,Celina,43.82,61.23,34.02,83.91,179.17,Single-ply,SBD,M
Boys,51.71,5,Hunter Cathey,Pottsboro,45.27,72.57,,79.38,151.95,Single-ply,SD,M
Boys,55.79,1,Kobe Parker,Pottsboro,55.16,131.54,97.52,129.27,358.34,Single-ply,SBD,M
Boys,55.79,2,Ryan Slagle,Pottsboro,55.34,136.08,72.57,127.01,335.66,Single-ply,SBD,M
Boys,55.79,3,Jaden Smith #1,Krum,54.7,102.06,72.57,145.15,319.78,Single-ply,SBD,M
Boys,55.79,4,Chris Bowling,Blue Ridge,55.79,106.59,70.31,115.67,292.57,Single-ply,SBD,M
Boys,55.79,5,Brendan Collum,Sadler S & S Cons,54.61,104.33,58.97,113.4,276.69,Single-ply,SBD,M
Boys,55.79,6,Porter Sciba,Aubrey,52.16,106.59,56.7,102.06,265.35,Single-ply,SBD,M
Boys,55.79,7,Raymond Bhikhai,Pilot Point,55.52,117.93,,142.88,260.82,Single-ply,SD,M
Boys,55.79,8,Brennan Ross,Howe,55.25,90.72,56.7,90.72,238.14,Single-ply,SBD,M
Boys,55.79,9,Colten Boswell,Gainesville,54.61,97.52,,111.13,208.65,Single-ply,SD,M
Boys,59.87,1,Erik Torres,Celina,59.69,154.22,113.4,161.03,428.64,Single-ply,SBD,M
Boys,59.87,2,Sebastian Guerra,Pilot Point,58.88,145.15,86.18,140.61,371.95,Single-ply,SBD,M
Boys,59.87,3,Alex Montoya,Blue Ridge,59.06,136.08,74.84,151.95,362.87,Single-ply,SBD,M
Boys,59.87,4,Zach Braswell,Howe,58.24,111.13,63.5,131.54,306.17,Single-ply,SBD,M
Boys,59.87,5,Cesar Saucedo,Gainesville,58.69,124.74,47.63,127.01,299.37,Single-ply,SBD,M
Boys,59.87,6,Zach Franzco,Sadler S & S Cons,58.97,74.84,43.09,115.67,233.6,Single-ply,SBD,M
Boys,59.87,7,Daniel Roberts,Pottsboro,58.88,70.31,58.97,90.72,219.99,Single-ply,SBD,M
Boys,67.13,1,Dylan Serna,Krum,66.77,188.24,117.93,204.12,510.29,Single-ply,SBD,M
Boys,67.13,2,Ian Concepcion,Krum,66.5,190.51,95.25,213.19,498.95,Single-ply,SBD,M
Boys,67.13,3,Solomon Titus,Leonard,65.77,185.97,108.86,197.31,492.15,Single-ply,SBD,M
Boys,67.13,4,Tyler Williams,Aubrey,65.77,151.95,95.25,176.9,424.11,Single-ply,SBD,M
Boys,67.13,5,Paul Lutz,Leonard,66.68,142.88,70.31,158.76,371.95,Single-ply,SBD,M
Boys,67.13,6,Taylor Barrett,Pilot Point,64.5,129.27,83.91,142.88,356.07,Single-ply,SBD,M
Boys,74.84,7,Antonio Barragan,Anna,67.31,138.35,90.72,124.74,353.8,Single-ply,SBD,M
Boys,67.13,8,Lane Serna,Krum,61.69,129.27,77.11,140.61,347,Single-ply,SBD,M
Boys,67.13,9,Dawson McDonald,Howe,61.33,136.08,61.23,147.42,344.73,Single-ply,SBD,M
Boys,67.13,10,Christian Martinez,Krum,65.5,136.08,70.31,136.08,342.46,Single-ply,SBD,M
Boys,67.13,11,Tanner Gardiner,Aubrey,65.32,127.01,,140.61,267.62,Single-ply,SD,M
Boys,67.13,12,Matt Kinerd,Anna,63.87,90.72,54.43,90.72,235.87,Single-ply,SBD,M
Boys,67.13,13,Frank Castorena,Collinsville,65.95,108.86,,124.74,233.6,Single-ply,SD,M
Boys,82.1,1,Joaquin Lopez,Howe,74.93,222.26,120.2,226.8,569.26,Single-ply,SBD,M
Boys,74.84,2,Ty Slaughter,Whitesboro,70.94,219.99,136.08,210.92,566.99,Single-ply,SBD,M
Boys,74.84,3,Tanner Johnson,Whitesboro,74.39,217.72,111.13,217.72,546.58,Single-ply,SBD,M
Boys,74.84,4,Stephen Steele,Pottsboro,70.85,199.58,133.81,204.12,537.51,Single-ply,SBD,M
Boys,74.84,5,Cody Woolsey,Whitesboro,71.3,172.37,90.72,192.78,455.86,Single-ply,SBD,M
Boys,74.84,6,Drew Patterson,Celina,71.85,138.35,88.45,142.88,369.68,Single-ply,SBD,M
Boys,74.84,7,Ethan Ford,Krum,73.84,133.81,68.04,156.49,358.34,Single-ply,SBD,M
Boys,74.84,8,Brandon Reeves,Krum,72.21,131.54,70.31,149.69,351.53,Single-ply,SBD,M
Boys,74.84,9,Rance Sanborn,Callisburg,67.68,129.27,79.38,124.74,333.39,Single-ply,SBD,M
Boys,74.84,10,Jose Villanueva #2,Blue Ridge,73.75,111.13,56.7,124.74,292.57,Single-ply,SBD,M
Boys,74.84,11,Colt Galloway,Pilot Point,69.85,104.33,61.23,106.59,272.16,Single-ply,SBD,M
Boys,74.84,12,Kaden Gardner,Celina,72.03,,88.45,142.88,231.33,Single-ply,BD,M
Boys,74.84,13,Blake Hamilton,Leonard,71.67,,61.23,113.4,174.63,Single-ply,BD,M
Boys,74.84,DQ,Cody Hauthorne,Aubrey,68.22,,,,,Single-ply,BD,M
Boys,82.1,1,Matthew Jelen,Krum,81.47,185.97,120.2,176.9,483.08,Single-ply,SBD,M
Boys,82.1,2,Jarrett Wilson,Pilot Point,75.66,183.7,127.01,147.42,458.13,Single-ply,SBD,M
Boys,82.1,3,Trenton Brawner,Celina,79.65,158.76,92.99,204.12,455.86,Single-ply,SBD,M
Boys,82.1,4,Chris de la Cruz,Pottsboro,78.56,167.83,99.79,174.63,442.25,Single-ply,SBD,M
Boys,82.1,5,Styven Canchola,Pilot Point,76.48,163.29,99.79,172.37,435.45,Single-ply,SBD,M
Boys,82.1,6,Jacob Royal,Gainesville,81.01,167.83,97.52,158.76,424.11,Single-ply,SBD,M
Boys,82.1,7,Alec Kyle,Anna,80.29,129.27,99.79,145.15,374.21,Single-ply,SBD,M
Boys,82.1,8,Isaac Armijo,Anna,76.93,172.37,,197.31,369.68,Single-ply,SD,M
Boys,82.1,9,Brandon Murphey,Whitesboro,75.57,142.88,88.45,133.81,365.14,Single-ply,SBD,M
Boys,82.1,10,Tanner Hartsfield,Howe,76.11,127.01,72.57,136.08,335.66,Single-ply,SBD,M
Boys,82.1,11,Zach Rhone,Leonard,78.47,102.06,65.77,158.76,326.59,Single-ply,SBD,M
Boys,82.1,12,Connor Torbert,Aubrey,80.29,,124.74,183.7,308.44,Single-ply,BD,M
Boys,82.1,13,Drew Martin,Collinsville,80.56,111.13,,136.08,247.21,Single-ply,SD,M
Boys,82.1,14,Ryan Burnett,Leonard,78.56,99.79,,104.33,204.12,Single-ply,SD,M
Boys,82.1,15,Chase Conder,Celina,75.3,124.74,,,124.74,Single-ply,S,M
Boys,89.81,16,Jeremy Mansur,Anna,82.28,,99.79,,99.79,Single-ply,B,M
Boys,82.1,17,Tyson Smith,Collinsville,79.65,,92.99,,92.99,Single-ply,B,M
Boys,82.1,DQ,Robert Rhodes,Gainesville,79.38,,,,,Single-ply,B,M
Boys,82.1,DQ,Daniel Lucas,Collinsville,78.29,,,,,Single-ply,B,M
Boys,89.81,1,John Groff,Pilot Point,88.72,244.94,145.15,247.21,637.3,Single-ply,SBD,M
Boys,89.81,2,Sam Heath,Aubrey,87.09,195.04,142.88,192.78,530.7,Single-ply,SBD,M
Boys,89.81,3,Calvin Stang,Aubrey,87,176.9,115.67,210.92,503.49,Single-ply,SBD,M
Boys,89.81,4,Chase Pinion,Anna,87.36,170.1,117.93,188.24,476.27,Single-ply,SBD,M
Boys,89.81,5,Tristan Farber,Leonard,88.27,158.76,117.93,154.22,430.91,Single-ply,SBD,M
Boys,89.81,6,Ian Mauldin,Leonard,89.54,149.69,90.72,163.29,403.7,Single-ply,SBD,M
Boys,89.81,7,Juan Martinez,Leonard,88.99,161.03,99.79,136.08,396.89,Single-ply,SBD,M
Boys,89.81,8,Jesse De Leon,Blue Ridge,83.37,147.42,102.06,142.88,392.36,Single-ply,SBD,M
Boys,89.81,9,Colton Spradley,Krum,83.91,120.2,92.99,161.03,374.21,Single-ply,SBD,M
Boys,89.81,10,Anthony Jordan,Pottsboro,85.73,136.08,90.72,142.88,369.68,Single-ply,SBD,M
Boys,89.81,11,Jack VerHoef,Aubrey,88.27,167.83,,192.78,360.61,Single-ply,SD,M
Boys,89.81,12,Mendel Kunkle,Pottsboro,85.09,147.42,74.84,117.93,340.19,Single-ply,SBD,M
Boys,89.81,13,Carlos Montoya,Whitesboro,89.72,122.47,65.77,120.2,308.44,Single-ply,SBD,M
Boys,89.81,14,Nick Osbourn,Pottsboro,83.55,122.47,70.31,113.4,306.17,Single-ply,SBD,M
Boys,89.81,15,Noah Kitchens,Gainesville,84.73,97.52,54.43,106.59,258.55,Single-ply,SBD,M
Boys,89.81,16,Anthony White #2,Gainesville,88.36,,81.65,165.56,247.21,Single-ply,BD,M
Boys,89.81,DQ,Gilberto Rivera,Gainesville,86.36,136.08,65.77,,,Single-ply,SBD,M
Boys,89.81,DQ,Lazaro Aldaco,Collinsville,85.73,140.61,,,,Single-ply,SBD,M
Boys,99.79,1,Garrett Lansford,Anna,91.08,240.4,158.76,217.72,616.89,Single-ply,SBD,M
Boys,99.79,2,Thomas Morales,Whitesboro,97.89,244.94,145.15,217.72,607.81,Single-ply,SBD,M
Boys,109.77,3,Cason Riley,Leonard,99.88,201.85,117.93,206.38,526.17,Single-ply,SBD,M
Boys,99.79,4,Chancey Hull,Aubrey,93.17,183.7,133.81,206.38,523.9,Single-ply,SBD,M
Boys,99.79,5,Mark Steinhoff,Aubrey,90.63,170.1,142.88,199.58,512.56,Single-ply,SBD,M
Boys,99.79,6,Ruben Hernandez #1,Gainesville,92.31,192.78,102.06,185.97,480.81,Single-ply,SBD,M
Boys,99.79,7,Zach LaRue,Callisburg,92.44,181.44,122.47,176.9,480.81,Single-ply,SBD,M
Boys,99.79,8,James Kemp,Anna,97.89,226.8,,226.8,453.59,Single-ply,SD,M
Boys,99.79,9,Joseph Romans,Gainesville,98.79,156.49,111.13,158.76,426.38,Single-ply,SBD,M
Boys,99.79,10,Ashton McDaniel,Pottsboro,94.26,136.08,86.18,136.08,358.34,Single-ply,SBD,M
Boys,99.79,11,Tristan Torres,Sadler S & S Cons,93.71,136.08,72.57,145.15,353.8,Single-ply,SBD,M
Boys,99.79,12,Ezequiel Trejo,Pilot Point,90.99,111.13,92.99,136.08,340.19,Single-ply,SBD,M
Boys,99.79,13,Cory Andrews,Collinsville,95.53,129.27,61.23,127.01,317.51,Single-ply,SBD,M
Boys,99.79,14,Brian Monroy,Gainesville,92.31,165.56,,136.08,301.64,Single-ply,SD,M
Boys,109.77,1,Ethan Lawson,Sadler S & S Cons,109.13,213.19,136.08,222.26,571.53,Single-ply,SBD,M
Boys,109.77,2,Sheldon Parkman,Howe,107.59,190.51,99.79,174.63,464.93,Single-ply,SBD,M
Boys,109.77,3,Zach Walton,Pottsboro,108.14,167.83,83.91,190.51,442.25,Single-ply,SBD,M
Boys,109.77,4,Triston Robinson,Whitesboro,101.88,147.42,108.86,163.29,419.57,Single-ply,SBD,M
Boys,109.77,5,Tim Edmonds,Pottsboro,102.42,165.56,83.91,167.83,417.3,Single-ply,SBD,M
Boys,109.77,6,Austin Jennings,Pottsboro,104.24,147.42,,142.88,290.3,Single-ply,SD,M
Boys,109.77,7,Kayl Powers,Collinsville,108.5,,81.65,192.78,274.42,Single-ply,BD,M
Boys,109.77,8,Hunter Flanagan,Pottsboro,107.41,122.47,,136.08,258.55,Single-ply,SD,M
Boys,109.77,DQ,Russell Carey,Whitesboro,105.87,179.17,90.72,167.83,,Single-ply,SBD,M
Boys,124.74,1,Cameron Adkins,Leonard,118.02,208.65,117.93,222.26,548.85,Single-ply,SBD,M
Boys,124.74,2,Connor Strocher,Pottsboro,112.49,170.1,117.93,185.97,474,Single-ply,SBD,M
Boys,124.74,3,Dawson Medler,Pottsboro,124.01,188.24,120.2,154.22,462.66,Single-ply,SBD,M
Boys,124.74,4,Michael Pruiett,Leonard,122.47,163.29,97.52,181.44,442.25,Single-ply,SBD,M
Boys,124.74,5,Francisco Estrada,Pilot Point,119.29,161.03,102.06,172.37,435.45,Single-ply,SBD,M
Boys,124.74,6,Michael Hamilton,Sadler S & S Cons,113.67,102.06,97.52,158.76,358.34,Single-ply,SBD,M
Boys,124.74,7,Bryan Townsend,Whitesboro,123.29,247.21,,,247.21,Single-ply,S,M
Boys,124.74+,1,Kasey Misenheimer,Whitesboro,130.18,242.67,129.27,208.65,580.6,Single-ply,SBD,M
Boys,124.74+,2,Larry Osterman,Aubrey,137.26,210.92,142.88,195.04,548.85,Single-ply,SBD,M
Boys,124.74+,3,Dillon Chambers,Sadler S & S Cons,129.55,158.76,136.08,170.1,464.93,Single-ply,SBD,M
Boys,124.74+,4,Dillon Gage,Sadler S & S Cons,126.23,249.48,,204.12,453.59,Single-ply,SD,M
Boys,124.74+,5,Dalton Carver,Sadler S & S Cons,158.12,156.49,90.72,197.31,444.52,Single-ply,SBD,M
Boys,124.74+,6,Michael Brian,Leonard,128.73,151.95,111.13,158.76,421.84,Single-ply,SBD,M
Boys,124.74+,7,Luke Melton,Celina,135.99,151.95,106.59,161.03,419.57,Single-ply,SBD,M
Boys,124.74+,8,Christian Carrasco,Pottsboro,132.9,,90.72,190.51,281.23,Single-ply,BD,M
