Division,WeightClassKg,Place,Name,Team,BodyweightKg,Best3SquatKg,Best3BenchKg,Best3DeadliftKg,TotalKg,Equipment,Event,Sex,BirthDate
Girls,44.23,1,Deidra Chapa,Alice,43.36,74.84,61.23,111.13,247.21,Unlimited,SBD,F,
Girls,44.23,2,Brooke Castillo,Alice,41.46,90.72,49.9,97.52,238.14,Unlimited,SBD,F,
Girls,44.23,3,Alyssa Dominguez,Ben Bolt-Palito Blanco,43.64,72.57,29.48,79.38,181.44,Unlimited,SBD,F,
Girls,44.23,4,Shyanne Gutierrez,Refugio,39.25,63.5,31.75,70.31,165.56,Unlimited,SBD,F,
Girls,44.23,5,Audrina Marcelino,Odem,41.37,72.57,24.95,65.77,163.29,Unlimited,SBD,F,
Girls,47.85,1,Avalynae Muniz,Kingsville King,44.54,74.84,36.29,90.72,201.85,Unlimited,SBD,F,
Girls,47.85,2,Abcde Mata,Kingsville King,47.63,68.04,38.56,90.72,197.31,Unlimited,SBD,F,
Girls,47.85,3,Arisela Quinones,Kingsville King,47.26,61.23,36.29,86.18,183.7,Unlimited,SBD,F,
Girls,47.85,4,Anna Gonzalez,Laredo Nixon,47.81,63.5,31.75,70.31,165.56,Unlimited,SBD,F,
Girls,47.85,5,Victoria Hernandez,Alice,47.81,58.97,31.75,74.84,165.56,Unlimited,SBD,F,
Girls,47.85,6,Aubrii Rodriguez,Sinton,45.45,52.16,27.22,61.23,140.61,Unlimited,SBD,F,
Girls,51.94,1,Lilah Morin,Odem,51.8,58.97,36.29,79.38,174.63,Unlimited,SBD,F,
Girls,51.94,2,Izabella Reyna,Sinton,50.26,52.16,29.48,68.04,149.69,Unlimited,SBD,F,
Girls,51.94,DQ,Perla Robledo,Corpus Christi Calallen,50.53,,,,,Unlimited,SBD,F,
Girls,56.02,1,Tessa Kubala,Alice,54.88,95.25,43.09,102.06,240.4,Unlimited,SBD,F,
Girls,56.02,2,Yzabella Luarca,Alice,54.98,90.72,45.36,88.45,224.53,Unlimited,SBD,F,
Girls,56.02,3,Mia Campos,Kingsville King,54.79,79.38,40.82,102.06,222.26,Unlimited,SBD,F,
Girls,56.02,4,Amy Green,Corpus Christi Calallen,55.34,81.65,40.82,90.72,213.19,Unlimited,SBD,F,
Girls,56.02,5,Jazmin Lopez,Refugio,55.79,54.43,34.02,72.57,161.03,Unlimited,SBD,F,
Girls,56.02,6,Taran Power,Odem,52.62,49.9,31.75,49.9,131.54,Unlimited,SBD,F,
Girls,56.02,DQ,Katalina Garcia,Odem,55.16,,,,,Unlimited,SBD,F,
Girls,56.02,DQ,Ashley Ramirez,Laredo Cigarroa,55.34,,,,,Unlimited,SBD,F,
Girls,60.1,1,Amanda Perez,Laredo Nixon,57.79,102.06,47.63,124.74,274.42,Unlimited,SBD,F,
Girls,60.1,2,Meagan Barcena,Kingsville King,59.78,104.33,36.29,117.93,258.55,Unlimited,SBD,F,
Girls,60.1,3,Charlene Vallejo,Laredo Nixon,57.97,81.65,45.36,99.79,226.8,Unlimited,SBD,F,
Girls,60.1,4,Shynia Brown,Sinton,59.96,83.91,43.09,97.52,224.53,Unlimited,SBD,F,
Girls,60.1,5,Kristina Quintanilla,Alice,58.97,90.72,38.56,90.72,219.99,Unlimited,SBD,F,
Girls,60.1,6,Dyanne Villarreal,Laredo Nixon,57.88,63.5,36.29,77.11,176.9,Unlimited,SBD,F,
Girls,60.1,7,Alexaderia Teniente,Laredo Nixon,59.51,68.04,24.95,77.11,170.1,Unlimited,SBD,F,
Girls,60.1,DQ,Kaylee Gomez,Kingsville King,58.15,,,,,Unlimited,SBD,F,
Girls,60.1,DQ,Emily Rangel,Laredo Cigarroa,57.24,,,,,Unlimited,SBD,F,
Girls,67.36,1,Kylie Cisneros,Falfurrias,66.5,95.25,49.9,113.4,258.55,Unlimited,SBD,F,
Girls,67.36,2,Jaylynn Gay,Sinton,65.95,54.43,31.75,79.38,165.56,Unlimited,SBD,F,
Girls,75.07,1,Breanna Palmer,Odem,72.48,161.03,79.38,142.88,383.29,Unlimited,SBD,F,
Girls,75.07,2,Nicole Beltran,Corpus Christi Calallen,70.58,108.86,43.09,117.93,269.89,Unlimited,SBD,F,
Girls,75.07,3,Ciara Gallegos,Alice,72.48,92.99,47.63,108.86,249.48,Unlimited,SBD,F,
Girls,75.07,4,Amberlyn Alaniz,Odem,71.58,95.25,45.36,92.99,233.6,Unlimited,SBD,F,
Girls,75.07,5,Elsie Villanueva,Laredo Cigarroa,71.85,56.7,31.75,74.84,163.29,Unlimited,SBD,F,
Girls,82.33,1,Jaelynn Cortez,Kingsville King,75.21,120.2,47.63,127.01,294.84,Unlimited,SBD,F,
Girls,82.33,2,Christina Perales,Laredo Cigarroa,80.2,104.33,49.9,120.2,274.42,Unlimited,SBD,F,
Girls,82.33,3,Alexandra Salazar,Refugio,79.38,99.79,49.9,120.2,269.89,Unlimited,SBD,F,
Girls,82.33,4,Avery Gerstner,Alice,82.01,92.99,43.09,129.27,265.35,Unlimited,SBD,F,
Girls,82.33,5,Sofia Gomez,Kingsville King,75.84,97.52,45.36,113.4,256.28,Unlimited,SBD,F,
Girls,82.33,6,Dhalia Duenes,Corpus Christi Calallen,79.83,90.72,52.16,113.4,256.28,Unlimited,SBD,F,
Girls,82.33,7,Maria Octavo,Laredo Nixon,78.2,90.72,38.56,102.06,231.33,Unlimited,SBD,F,
Girls,82.33,DQ,Makayla Beltran,Kingsville King,79.02,88.45,43.09,,,Unlimited,SBD,F,
Girls,90.04,1,Kimberly Gonzalez,Laredo Nixon,88.45,136.08,63.5,163.29,362.87,Unlimited,SBD,F,
Girls,90.04,2,Jocelyn Turrubiartes,Laredo Nixon,86.82,129.27,58.97,124.74,312.98,Unlimited,SBD,F,
Girls,90.04,3,Audrey Perez,Laredo Cigarroa,88.81,117.93,47.63,122.47,288.03,Unlimited,SBD,F,
Girls,90.04,4,Yazmin Saldivar,Laredo Cigarroa,89.54,117.93,47.63,120.2,285.76,Unlimited,SBD,F,
Girls,90.04,5,Caitlynn Gonzalez,Falfurrias,87.72,113.4,47.63,120.2,281.23,Unlimited,SBD,F,
Girls,90.04,6,Josie Garcia,Kingsville King,84.82,104.33,52.16,117.93,274.42,Unlimited,SBD,F,
Girls,90.04,7,Alexandria Byler,Sinton,83.55,90.72,47.63,102.06,240.4,Unlimited,SBD,F,
Girls,90.04,8,Nia Medina,Ben Bolt-Palito Blanco,86.18,90.72,34.02,90.72,215.46,Unlimited,SBD,F,
Girls,100.02,1,Kaylie Lozano,Laredo Nixon,95.62,140.61,72.57,151.95,365.14,Unlimited,SBD,F,
Girls,100.02,2,Julissa Olbera,Sinton,98.52,147.42,65.77,147.42,360.61,Unlimited,SBD,F,
Girls,100.02,3,Evangelina Medina,Sinton,91.17,131.54,56.7,140.61,328.85,Unlimited,SBD,F,
Girls,100.02,4,Mellany Hernandez,Alice,96.34,127.01,49.9,133.81,310.71,Unlimited,SBD,F,
Girls,100.02,5,Shelby Vela,Laredo Cigarroa,96.52,133.81,52.16,124.74,310.71,Unlimited,SBD,F,
Girls,100.02,6,Mia Gutierrez,Laredo Nixon,97.98,142.88,54.43,113.4,310.71,Unlimited,SBD,F,
Girls,100.02,7,Alejandra Vargas,Corpus Christi Calallen,98.52,124.74,49.9,136.08,310.71,Unlimited,SBD,F,
Girls,100.02,8,Makinzie Sanger,Falfurrias,90.36,104.33,47.63,113.4,265.35,Unlimited,SBD,F,
Girls,100.02,9,Sway Vasquez,Laredo Cigarroa,99.52,88.45,40.82,92.99,222.26,Unlimited,SBD,F,
Girls,110,1,Grazia Roquez,Laredo Nixon,101.97,145.15,68.04,145.15,358.34,Unlimited,SBD,F,
Girls,110,2,Kloe Fox,Alice,105.87,145.15,47.63,136.08,328.85,Unlimited,SBD,F,
Girls,110,3,Abbie Moreno,Sinton,101.79,102.06,34.02,117.93,254.01,Unlimited,SBD,F,
Girls,110+,1,Matieanna Trevino,Alice,121.02,142.88,54.43,149.69,347,Unlimited,SBD,F,
Girls,110+,2,Gabriella Adrian,Kingsville King,110.04,145.15,61.23,131.54,337.93,Unlimited,SBD,F,
Girls,110+,3,Zoe Garcia,Odem,114.49,111.13,61.23,124.74,297.1,Unlimited,SBD,F,
Girls,110+,DQ,Aayla O'Grady,Kingsville King,118.75,,,,,Unlimited,SBD,F,
Girls,110+,DQ,Selena Corter,Woodsboro,126.55,,,,,Unlimited,SBD,F,
Girls,,NS,Isabella Romero,Odem,,,,,,Unlimited,SBD,F,
Girls,,NS,Melanie De Leon,Sinton,,,,,,Unlimited,SBD,F,
Girls,,NS,Reyna Gomez,Kingsville King,,,,,,Unlimited,SBD,F,
Girls,,NS,Rebecca Gonzales,Alice,,,,,,Unlimited,SBD,F,
Girls,,NS,Keira Salinas,Alice,,,,,,Unlimited,SBD,F,
