Division,WeightClassKg,Place,Name,Team,BodyweightKg,Best3SquatKg,Best3BenchKg,Best3DeadliftKg,TotalKg,Equipment,Event,Sex,BirthDate
Boys,51.71,1,Gonzalo Ortiz,Dublin,47.81,124.74,81.65,127.01,333.39,Unlimited,SBD,M,
Boys,51.71,2,Luke Barr,Hico,51.26,120.2,74.84,120.2,315.25,Unlimited,SBD,M,
Boys,51.71,3,Alan Osorio,Coleman,51.44,115.67,61.23,133.81,310.71,Unlimited,SBD,M,
Boys,51.71,4,Yovany Ortiz,Dublin,51.44,108.86,72.57,113.4,294.84,Unlimited,SBD,M,
Boys,51.71,5,Paul Adams,Dublin,47.81,106.59,52.16,104.33,263.08,Unlimited,SBD,M,
Boys,51.71,6,Chey Wild,Breckenridge,51.62,102.06,52.16,106.59,260.82,Unlimited,SBD,M,
Boys,55.79,1,Axel Rangel,Comanche,55.25,172.37,90.72,167.83,430.91,Unlimited,SBD,M,
Boys,55.79,2,Brylen Fiest,Tolar,55.43,149.69,81.65,147.42,378.75,Unlimited,SBD,M,
Boys,55.79,3,Jaxon McGavock,Hico,53.16,117.93,72.57,124.74,315.25,Unlimited,SBD,M,
Boys,55.79,4,Christian Reyes,San Saba,53.52,117.93,61.23,111.13,290.3,Unlimited,SBD,M,
Boys,55.79,5,Jake Gutierrez,Hamilton,52.89,92.99,68.04,120.2,281.23,Unlimited,SBD,M,
Boys,55.79,DQ,Carlos Alvarado,Breckenridge,54.16,138.35,70.31,,,Unlimited,SBD,M,
Boys,59.87,1,Andrew Colclasure,Comanche,58.33,167.83,79.38,154.22,401.43,Unlimited,SBD,M,
Boys,59.87,2,Barrett Standridge,San Saba,59.69,136.08,65.77,138.35,340.19,Unlimited,SBD,M,
Boys,59.87,3,Jaydev Fernandez,Breckenridge,57.52,120.2,65.77,136.08,322.05,Unlimited,SBD,M,
Boys,59.87,4,Dexter Barron,Tolar,58.51,74.84,43.09,124.74,242.67,Unlimited,SBD,M,
Boys,67.13,1,Cosme Gonzalez,Comanche,67,222.26,154.22,224.53,601.01,Unlimited,SBD,M,
Boys,67.13,2,Alex Saucedo,Breckenridge,65.41,167.83,104.33,213.19,485.34,Unlimited,SBD,M,
Boys,67.13,3,Justin Hernandez,San Saba,65.32,174.63,99.79,192.78,467.2,Unlimited,SBD,M,
Boys,67.13,4,John Sackett,Breckenridge,66.32,151.95,83.91,174.63,410.5,Unlimited,SBD,M,
Boys,67.13,5,Darren Odell,Comanche,66.63,151.95,95.25,163.29,410.5,Unlimited,SBD,M,
Boys,67.13,6,Braxton Champion,Stephenville,66.95,156.49,92.99,140.61,390.09,Unlimited,SBD,M,
Boys,67.13,7,Michael Parrott,Bangs,65.14,147.42,88.45,142.88,378.75,Unlimited,SBD,M,
Boys,67.13,8,Travis Spharler,Dublin,64.86,149.69,68.04,138.35,356.07,Unlimited,SBD,M,
Boys,67.13,9,Ed Garcia,De Leon,61.87,124.74,68.04,156.49,349.27,Unlimited,SBD,M,
Boys,67.13,10,Tai Gentsch,Goldthwaite,60.51,115.67,70.31,149.69,335.66,Unlimited,SBD,M,
Boys,67.13,11,Jeremy Poffenbarger,Goldthwaite,66.13,102.06,77.11,138.35,317.51,Unlimited,SBD,M,
Boys,67.13,12,Slade Allen,Goldthwaite,66.22,111.13,70.31,136.08,317.51,Unlimited,SBD,M,
Boys,67.13,13,Cooper Clemons,Tolar,64.5,122.47,68.04,113.4,303.91,Unlimited,SBD,M,
Boys,67.13,14,Harley Pinkard,De Leon,62.6,108.86,61.23,117.93,288.03,Unlimited,SBD,M,
Boys,67.13,DQ,Julio Chavez,Breckenridge,65.23,138.35,,,,Unlimited,SBD,M,
Boys,67.13,DQ,Eduardo Salazar,Breckenridge,66.5,161.03,,,,Unlimited,SBD,M,
Boys,67.13,DQ,Anthony Garcia,San Saba,65.77,145.15,,,,Unlimited,SBD,M,
Boys,74.84,1,Easton Gonzalez,Comanche,73.07,206.38,158.76,210.92,576.06,Unlimited,SBD,M,
Boys,74.84,2,Alonso Moreno,Dublin,72.76,222.26,108.86,208.65,539.77,Unlimited,SBD,M,
Boys,74.84,3,Manuel Ortiz,Comanche,74.48,199.58,127.01,190.51,517.1,Unlimited,SBD,M,
Boys,74.84,4,Ryan Dickey,Bangs,73.94,206.38,115.67,192.78,514.83,Unlimited,SBD,M,
Boys,74.84,5,Lucas Azua,Dublin,74.21,210.92,124.74,174.63,510.29,Unlimited,SBD,M,
Boys,74.84,6,Jack McKay,Breckenridge,71.67,201.85,106.59,190.51,498.95,Unlimited,SBD,M,
Boys,74.84,7,Devean Greaves,Bangs,73.57,192.78,124.74,165.56,483.08,Unlimited,SBD,M,
Boys,74.84,8,Kayson Bunkley,Hico,72.76,183.7,102.06,183.7,469.47,Unlimited,SBD,M,
Boys,74.84,9,Hunter Crowell,Bangs,74.75,183.7,102.06,165.56,451.32,Unlimited,SBD,M,
Boys,74.84,10,Gunnar Pearce,Breckenridge,72.3,167.83,95.25,170.1,433.18,Unlimited,SBD,M,
Boys,74.84,11,Rayland Saucillo,San Saba,73.12,158.76,95.25,174.63,428.64,Unlimited,SBD,M,
Boys,74.84,12,Ryan Roberts,San Saba,73.39,151.95,104.33,170.1,426.38,Unlimited,SBD,M,
Boys,74.84,13,Ladanian Smith,Comanche,70.49,165.56,97.52,156.49,419.57,Unlimited,SBD,M,
Boys,74.84,14,Cason Tidwell,Bangs,70.85,142.88,102.06,149.69,394.63,Unlimited,SBD,M,
Boys,74.84,15,Max Storm,Goldthwaite,70.13,142.88,74.84,167.83,385.55,Unlimited,SBD,M,
Boys,74.84,16,Tristan Brewer,Hico,73.39,129.27,95.25,142.88,367.41,Unlimited,SBD,M,
Boys,74.84,17,Daniel Rios,Comanche,71.12,140.61,65.77,147.42,353.8,Unlimited,SBD,M,
Boys,74.84,18,Angel Hernandez,Goldthwaite,68.31,124.74,79.38,136.08,340.19,Unlimited,SBD,M,
Boys,74.84,19,Weston Pesch,Goldthwaite,67.68,113.4,61.23,136.08,310.71,Unlimited,SBD,M,
Boys,82.1,1,Jake Pack,Stephenville,79.92,233.6,145.15,224.53,603.28,Unlimited,SBD,M,
Boys,82.1,2,Noah Castillo,Bangs,81.74,219.99,142.88,213.19,576.06,Unlimited,SBD,M,
Boys,82.1,3,Price Mullin,Hico,77.75,199.58,147.42,210.92,557.92,Unlimited,SBD,M,
Boys,82.1,4,Jimmy Diaz,Coleman,75.11,185.97,115.67,185.97,487.61,Unlimited,SBD,M,
Boys,82.1,5,Gio Villanueva,Coleman,79.83,161.03,124.74,183.7,469.47,Unlimited,SBD,M,
Boys,82.1,6,Zaden Tello,Comanche,81.92,170.1,102.06,154.22,426.38,Unlimited,SBD,M,
Boys,82.1,7,Kennon Lee,Hamilton,79.65,133.81,81.65,142.88,358.34,Unlimited,SBD,M,
Boys,82.1,8,Carson Murphy,San Saba,76.29,122.47,83.91,131.54,337.93,Unlimited,SBD,M,
Boys,82.1,9,Eli Stewart,Tolar,76.57,115.67,68.04,113.4,297.1,Unlimited,SBD,M,
Boys,89.81,1,Luke Stacy,Stephenville,87.54,242.67,149.69,224.53,616.89,Unlimited,SBD,M,
Boys,89.81,2,Emmanuel Ramirez,Dublin,88.99,219.99,138.35,215.46,573.79,Unlimited,SBD,M,
Boys,89.81,3,William Lopez,Comanche,85.55,235.87,106.59,170.1,512.56,Unlimited,SBD,M,
Boys,89.81,4,Connor Bostic,De Leon,86.45,199.58,104.33,208.65,512.56,Unlimited,SBD,M,
Boys,89.81,5,Adrian Tepetate,De Leon,87.18,188.24,111.13,201.85,501.22,Unlimited,SBD,M,
Boys,89.81,6,Brayden Gatlin,Bangs,87.09,176.9,102.06,199.58,478.54,Unlimited,SBD,M,
Boys,89.81,7,Jacob Ross,Goldthwaite,83.64,165.56,106.59,201.85,474,Unlimited,SBD,M,
Boys,89.81,8,ELi Garza,De Leon,87.72,133.81,95.25,192.78,421.84,Unlimited,SBD,M,
Boys,89.81,9,Noah Smith,Comanche,85.64,158.76,99.79,156.49,415.04,Unlimited,SBD,M,
Boys,89.81,10,Simon Hodge,Goldthwaite,87.72,138.35,95.25,154.22,387.82,Unlimited,SBD,M,
Boys,89.81,11,Noah Block,Hico,83.55,124.74,95.25,154.22,374.21,Unlimited,SBD,M,
Boys,89.81,12,Cameron Little,Hamilton,82.37,79.38,74.84,158.76,312.98,Unlimited,SBD,M,
Boys,89.81,DQ,Damian Hudspeth,Bangs,84.73,,,,,Unlimited,SBD,M,
Boys,89.81,DQ,Jadin Jackson,Coleman,84.1,204.12,,,,Unlimited,SBD,M,
Boys,99.79,1,Zeke Munoz,Coleman,96.62,278.96,192.78,244.94,716.68,Unlimited,SBD,M,
Boys,99.79,2,Aiden Hernandez,Coleman,97.52,213.19,136.08,185.97,535.24,Unlimited,SBD,M,
Boys,99.79,3,Brazos Boswell,De Leon,96.62,213.19,113.4,201.85,528.44,Unlimited,SBD,M,
Boys,99.79,4,Mason Hodges,Stephenville,98.7,201.85,122.47,192.78,517.1,Unlimited,SBD,M,
Boys,99.79,5,Miles Hatch,Comanche,99.16,206.38,133.81,174.63,514.83,Unlimited,SBD,M,
Boys,99.79,6,Coy Cleveland,Stephenville,93.98,179.17,145.15,183.7,508.02,Unlimited,SBD,M,
Boys,99.79,7,Caige Balvantin,Dublin,98.61,206.38,120.2,174.63,501.22,Unlimited,SBD,M,
Boys,99.79,8,Josh Powers,Breckenridge,96.52,197.31,95.25,197.31,489.88,Unlimited,SBD,M,
Boys,99.79,9,Roy Duron,Bangs,96.8,185.97,104.33,197.31,487.61,Unlimited,SBD,M,
Boys,99.79,10,Ethan Killman,San Saba,91.53,163.29,127.01,172.37,462.66,Unlimited,SBD,M,
Boys,99.79,11,Skyler Clark,Coleman,90.45,181.44,120.2,158.76,460.4,Unlimited,SBD,M,
Boys,99.79,12,Adam Jaimes,Dublin,92.08,158.76,111.13,167.83,437.72,Unlimited,SBD,M,
Boys,99.79,13,Amado Carranza,Dublin,98.52,167.83,102.06,156.49,426.38,Unlimited,SBD,M,
Boys,99.79,DQ,Jonas Powell,Bangs,98.43,183.7,,,,Unlimited,SBD,M,
Boys,109.77,1,Sam Stewart,Tolar,104.51,235.87,145.15,247.21,628.23,Unlimited,SBD,M,
Boys,109.77,2,Ethan Dease,Comanche,102.15,224.53,156.49,226.8,607.81,Unlimited,SBD,M,
Boys,109.77,3,Fabricio Davila,Breckenridge,107.77,206.38,142.88,256.28,605.55,Unlimited,SBD,M,
Boys,109.77,4,Cole Morton,Breckenridge,107.23,254.01,140.61,204.12,598.74,Unlimited,SBD,M,
Boys,109.77,5,Aiden Everett,Stephenville,102.33,226.8,142.88,208.65,578.33,Unlimited,SBD,M,
Boys,109.77,6,Juan Elecerio,Dublin,105.32,181.44,120.2,183.7,485.34,Unlimited,SBD,M,
Boys,109.77,7,Ryan Gibson,De Leon,103.51,174.63,99.79,179.17,453.59,Unlimited,SBD,M,
Boys,109.77,8,Keoni Edwards,Evant,101.6,149.69,104.33,192.78,446.79,Unlimited,SBD,M,
Boys,109.77,9,Juan Alvarez,Dublin,108.5,147.42,81.65,142.88,371.95,Unlimited,SBD,M,
Boys,124.74,1,Mills Mehaffey,Hamilton,116.85,197.31,138.35,192.78,528.44,Unlimited,SBD,M,
Boys,124.74,2,Juan Garcia,De Leon,121.29,201.85,117.93,204.12,523.9,Unlimited,SBD,M,
Boys,124.74,3,Caysen Bergt,Stephenville,122.2,199.58,115.67,183.7,498.95,Unlimited,SBD,M,
Boys,124.74,4,Edmond Martinez,Goldthwaite,113.04,161.03,120.2,174.63,455.86,Unlimited,SBD,M,
Boys,124.74,5,Baylor Whitley,De Leon,119.02,170.1,81.65,179.17,430.91,Unlimited,SBD,M,
Boys,124.74,6,Ulices Mendoza,San Saba,119.84,154.22,104.33,158.76,417.3,Unlimited,SBD,M,
Boys,139.71,1,Nik Adams,Hamilton,127.28,285.76,165.56,258.55,709.87,Unlimited,SBD,M,
Boys,139.71,2,Noah Pin,Bangs,127.28,278.96,142.88,226.8,648.64,Unlimited,SBD,M,
Boys,139.71,3,Ethan Landeros,San Saba,138.62,235.87,145.15,204.12,585.13,Unlimited,SBD,M,
Boys,139.71,4,Juan Lopez,San Saba,134.81,233.6,136.08,181.44,551.11,Unlimited,SBD,M,
Boys,139.71,5,Slade Shields,Stephenville,135.53,201.85,142.88,199.58,544.31,Unlimited,SBD,M,
Boys,139.71+,1,Landon Deters,Comanche,177.58,244.94,167.83,249.48,662.24,Unlimited,SBD,M,
Boys,139.71+,2,Brody Newton,Bangs,141.97,226.8,136.08,215.46,578.33,Unlimited,SBD,M,
Boys,139.71+,3,Danny Lopez,Comanche,143.61,235.87,147.42,161.03,544.31,Unlimited,SBD,M,
Boys,139.71+,4,Hugo Melendez,Goldthwaite,151.32,183.7,129.27,174.63,487.61,Unlimited,SBD,M,
