Division,WeightClassKg,Place,Name,Team,BodyweightKg,Best3SquatKg,Best3BenchKg,Best3DeadliftKg,TotalKg,Equipment,Event,Sex,BirthDate
Boys,51.71,1,Isaac Vasquez,Brownfield,51.35,108.86,79.38,129.27,317.51,Unlimited,SBD,M,
Boys,51.71,2,Rolando Rivera,Sundown,48.81,113.4,72.57,129.27,315.25,Unlimited,SBD,M,
Boys,51.71,3,Trace Price,Post,51.44,113.4,65.77,127.01,306.17,Unlimited,SBD,M,
Boys,51.71,4,Talan Gonzales,Lamesa,51.71,83.91,61.23,124.74,269.89,Unlimited,SBD,M,
Boys,51.71,5,Isaac Tavera,Bovina,48.99,102.06,52.16,111.13,265.35,Unlimited,SBD,M,
Boys,55.79,1,Fabian Viernes,Bovina,55.43,172.37,120.2,165.56,458.13,Unlimited,SBD,M,
Boys,55.79,2,Zaden Carrillo,Levelland,55.79,124.74,74.84,161.03,360.61,Unlimited,SBD,M,
Boys,55.79,3,Jorge Beltran,Seagraves,55.34,122.47,68.04,113.4,303.91,Unlimited,SBD,M,
Boys,59.87,1,Michael Salazar,Sundown,56.97,165.56,97.52,192.78,455.86,Unlimited,SBD,M,
Boys,59.87,2,Adin Rodriguez,Tulia,57.79,136.08,77.11,149.69,362.87,Unlimited,SBD,M,
Boys,59.87,3,Darey Rueda,Bovina,57.7,68.04,56.7,95.25,219.99,Unlimited,SBD,M,
Boys,67.13,1,Jesus Montoya,Post,66.77,215.46,133.81,197.31,546.58,Unlimited,SBD,M,
Boys,67.13,2,Ian Vergara,Post,66.13,179.17,104.33,197.31,480.81,Unlimited,SBD,M,
Boys,67.13,3,Miguel Lopez,Bovina,67.13,147.42,104.33,158.76,410.5,Unlimited,SBD,M,
Boys,67.13,4,Branson Sanders,Sundown,63.5,151.95,68.04,174.63,394.63,Unlimited,SBD,M,
Boys,67.13,5,Eddie Garcia,Meadow,66.41,158.76,83.91,142.88,385.55,Unlimited,SBD,M,
Boys,67.13,6,Daniel Young,Post,63.96,158.76,74.84,145.15,378.75,Unlimited,SBD,M,
Boys,67.13,7,Ej Soto,Post,63.23,136.08,86.18,129.27,351.53,Unlimited,SBD,M,
Boys,67.13,8,Kaiden Medina,Levelland,63.23,102.06,70.31,151.95,324.32,Unlimited,SBD,M,
Boys,67.13,9,Zaiden Perez,Tahoka,64.5,108.86,61.23,133.81,303.91,Unlimited,SBD,M,
Boys,67.13,10,Javier Reyes,Seagraves,61.69,108.86,54.43,95.25,258.55,Unlimited,SBD,M,
Boys,74.84,1,Michael Garza,Wolfforth Frenship,73.03,197.31,167.83,233.6,598.74,Unlimited,SBD,M,
Boys,74.84,2,Adiryn Herevia,Tahoka,74.48,213.19,136.08,188.24,537.51,Unlimited,SBD,M,
Boys,74.84,3,Diego Vidaurre,Lamesa,71.67,145.15,79.38,174.63,399.16,Unlimited,SBD,M,
Boys,74.84,4,Alex Keene,Levelland,70.76,151.95,92.99,151.95,396.89,Unlimited,SBD,M,
Boys,74.84,5,Izaak Trejo,Lamesa,69.67,167.83,70.31,151.95,390.09,Unlimited,SBD,M,
Boys,74.84,6,JJ Vargas,Levelland,68.95,142.88,79.38,142.88,365.14,Unlimited,SBD,M,
Boys,74.84,7,Riley Nolan,Tulia,70.13,111.13,79.38,142.88,333.39,Unlimited,SBD,M,
Boys,74.84,8,Alex Zapata,Levelland,69.4,68.04,61.23,136.08,265.35,Unlimited,SBD,M,
Boys,74.84,DQ,Solomon Lopez,Bovina,68.86,102.06,,,,Unlimited,SBD,M,
Boys,74.84,DQ,Branson Harris,Post,68.04,,,,,Unlimited,SBD,M,
Boys,82.1,1,Jack Pollard,Wolfforth Frenship,81.56,219.99,158.76,235.87,614.62,Unlimited,SBD,M,
Boys,82.1,2,Steven Hernandez,Tahoka,80.83,226.8,158.76,206.38,591.94,Unlimited,SBD,M,
Boys,82.1,3,Austin Ellis,Levelland,81.37,183.7,117.93,197.31,498.95,Unlimited,SBD,M,
Boys,82.1,4,Jackson Gibbs,Levelland,80.2,158.76,102.06,199.58,460.4,Unlimited,SBD,M,
Boys,82.1,5,Daniel Ponce,Bovina,78.83,165.56,111.13,176.9,453.59,Unlimited,SBD,M,
Boys,82.1,6,Jacob Tew,Tahoka,79.29,176.9,102.06,174.63,453.59,Unlimited,SBD,M,
Boys,82.1,7,Jack Corbin,Wolfforth Frenship,81.56,165.56,108.86,174.63,449.06,Unlimited,SBD,M,
Boys,82.1,8,Adonis Bustillos,Wolfforth Frenship,82.01,156.49,102.06,174.63,433.18,Unlimited,SBD,M,
Boys,82.1,9,Jesus Solano #2,Levelland,80.56,145.15,104.33,179.17,428.64,Unlimited,SBD,M,
Boys,82.1,10,Angel Lara,Bovina,81.37,163.29,102.06,161.03,426.38,Unlimited,SBD,M,
Boys,82.1,11,Trevor Bridges,Sundown,76.02,158.76,90.72,174.63,424.11,Unlimited,SBD,M,
Boys,82.1,12,Tommy Cantu,Seagraves,82.1,167.83,86.18,161.03,415.04,Unlimited,SBD,M,
Boys,82.1,13,Francisco Lozano,Levelland,81.28,142.88,79.38,172.37,394.63,Unlimited,SBD,M,
Boys,82.1,14,Isaak Flores,Lamesa,78.74,145.15,95.25,149.69,390.09,Unlimited,SBD,M,
Boys,82.1,15,Alexandro Herrera,Bovina,79.2,145.15,74.84,133.81,353.8,Unlimited,SBD,M,
Boys,82.1,16,Devin Espino,Seagraves,75.75,131.54,68.04,142.88,342.46,Unlimited,SBD,M,
Boys,89.81,1,Brady Barcheers,Tahoka,85.73,188.24,133.81,188.24,510.29,Unlimited,SBD,M,
Boys,89.81,2,Cayne Johnson,Brownfield,88.45,188.24,136.08,174.63,498.95,Unlimited,SBD,M,
Boys,89.81,3,Hector Zamora,Lamesa,87.54,183.7,111.13,183.7,478.54,Unlimited,SBD,M,
Boys,89.81,4,Ty Bice,Tulia,83.37,158.76,106.59,183.7,449.06,Unlimited,SBD,M,
Boys,89.81,5,Gauge Salas,Bovina,82.46,174.63,102.06,156.49,433.18,Unlimited,SBD,M,
Boys,89.81,6,Josiah Quinonez,Tahoka,82.55,133.81,88.45,147.42,369.68,Unlimited,SBD,M,
Boys,89.81,7,Aaron Cano,Meadow,87.54,113.4,43.09,124.74,281.23,Unlimited,SBD,M,
Boys,89.81,DQ,Jose Salas,Bovina,86,,,,,Unlimited,SBD,M,
Boys,99.79,1,Pablo Herevia,Tahoka,92.53,238.14,161.03,215.46,614.62,Unlimited,SBD,M,
Boys,99.79,2,Alejandro Rodriguez,Post,91.72,244.94,149.69,215.46,610.08,Unlimited,SBD,M,
Boys,99.79,3,Mason Wright,Post,99.06,260.82,129.27,217.72,607.81,Unlimited,SBD,M,
Boys,99.79,4,Austin Ferriera,Brownfield,98.88,235.87,185.97,183.7,605.55,Unlimited,SBD,M,
Boys,99.79,5,Sam Odom,Wolfforth Frenship,97.07,192.78,136.08,204.12,532.97,Unlimited,SBD,M,
Boys,99.79,6,Evan Martinez,Seagraves,99.79,199.58,124.74,195.04,519.36,Unlimited,SBD,M,
Boys,99.79,7,Jaxon Rodriguez,Sundown,90.72,183.7,102.06,204.12,489.88,Unlimited,SBD,M,
Boys,99.79,8,Lupe Holguin,Seagraves,99.79,181.44,122.47,181.44,485.34,Unlimited,SBD,M,
Boys,99.79,9,Landon Sehon,Sundown,96.52,167.83,131.54,170.1,469.47,Unlimited,SBD,M,
Boys,99.79,10,Jadon McAdams,Sundown,90.54,165.56,115.67,165.56,446.79,Unlimited,SBD,M,
Boys,99.79,11,Lino Hernandez,Tahoka,91.26,176.9,102.06,165.56,444.52,Unlimited,SBD,M,
Boys,99.79,12,Aiden Marmolejo,Lamesa,97.98,145.15,88.45,151.95,385.55,Unlimited,SBD,M,
Boys,99.79,13,Timothy Steinbaugh,Tulia,97.43,140.61,92.99,145.15,378.75,Unlimited,SBD,M,
Boys,99.79,14,Ryan Ramirez,Tulia,90.72,120.2,95.25,161.03,376.48,Unlimited,SBD,M,
Boys,99.79,15,Jonas Garcia,Brownfield,94.98,117.93,81.65,147.42,347,Unlimited,SBD,M,
Boys,99.79,DQ,Xathan Chasco,Tulia,95.8,174.63,,,,Unlimited,SBD,M,
Boys,109.77,1,Joe Pena,Levelland,100.24,190.51,136.08,188.24,514.83,Unlimited,SBD,M,
Boys,109.77,2,Colton Watts,Wolfforth Frenship,104.96,188.24,104.33,190.51,483.08,Unlimited,SBD,M,
Boys,109.77,3,Jacob Lujan,Sundown,100.7,181.44,117.93,163.29,462.66,Unlimited,SBD,M,
Boys,109.77,4,Quiteana Christian,Sundown,106.32,181.44,111.13,158.76,451.32,Unlimited,SBD,M,
Boys,109.77,5,Azrock Busch,Post,105.96,149.69,90.72,136.08,376.48,Unlimited,SBD,M,
Boys,124.74,1,Reynaldo Loredo,Wolfforth Frenship,116.57,272.16,183.7,249.48,705.34,Unlimited,SBD,M,
Boys,124.74,2,Logan Castaneda,Meadow,116.66,285.76,170.1,242.67,698.53,Unlimited,SBD,M,
Boys,124.74,3,Jacinto Briones,Tulia,122.83,254.01,131.54,222.26,607.81,Unlimited,SBD,M,
Boys,124.74,4,Xavyn Garcia,Sundown,112.04,226.8,170.1,190.51,587.4,Unlimited,SBD,M,
Boys,124.74,5,Ian Durham,Brownfield,124.65,208.65,165.56,201.85,576.06,Unlimited,SBD,M,
Boys,124.74,6,Gabe Perez,Post,123.83,213.19,122.47,199.58,535.24,Unlimited,SBD,M,
Boys,124.74,7,Ryker Trantham,Wolfforth Frenship,110.22,181.44,102.06,217.72,501.22,Unlimited,SBD,M,
Boys,124.74,8,Linito Mendoza,Wolfforth Frenship,115.67,183.7,124.74,181.44,489.88,Unlimited,SBD,M,
Boys,124.74,9,Lucas Acosta,Lamesa,121.56,170.1,102.06,154.22,426.38,Unlimited,SBD,M,
Boys,124.74,DQ,Michael Arriaga,Levelland,111.13,151.95,,,,Unlimited,SBD,M,
Boys,139.71,1,Eli Hicks,Wolfforth Frenship,138.8,204.12,122.47,183.7,510.29,Unlimited,SBD,M,
Boys,139.71,2,Jonah Pequeno,Post,126.1,154.22,127.01,156.49,437.72,Unlimited,SBD,M,
Boys,139.71,3,Antonio Caceres,Post,129.27,142.88,83.91,154.22,381.02,Unlimited,SBD,M,
Boys,139.71,4,Jose Garcia,Lamesa,136.98,138.35,79.38,156.49,374.21,Unlimited,SBD,M,
Boys,139.71+,1,Pedro Loredo,Wolfforth Frenship,159.21,276.69,154.22,197.31,628.23,Unlimited,SBD,M,
Boys,139.71+,2,Evan Sepeda,Lamesa,172.82,204.12,115.67,210.92,530.7,Unlimited,SBD,M,
Boys,139.71+,3,Brooks Franklin,Wolfforth Frenship,163.29,183.7,108.86,172.37,464.93,Unlimited,SBD,M,
Boys,,NS,Xavier Garcia,Bovina,,,,,,Unlimited,SBD,M,
